{"firstName":"Patrick","lastName":"Roy","PostGA":584,"teams":["Colorado Avalanche","Montreal Canadiens"],"awards":18}
{"firstName":"Grant","lastName":"Fuhr","PostGA":430,"teams":["St. Louis Blues","Buffalo Sabres","Calgary Flames","Toronto Maple Leafs","Edmonton Oilers","Los Angeles Kings"],"awards":4}
{"firstName":"Martin","lastName":"Brodeur","PostGA":428,"teams":["New Jersey Devils"],"awards":18}
{"firstName":"Andy","lastName":"Moog","PostGA":377,"teams":["Edmonton Oilers","Dallas Stars","Montreal Canadiens","Boston Bruins"],"awards":1}
{"firstName":"Mike","lastName":"Vernon","PostGA":367,"teams":["San Jose Sharks","Calgary Flames","Florida Panthers","Detroit Red Wings"],"awards":3}
{"firstName":"Ed","lastName":"Belfour","PostGA":359,"teams":["San Jose Sharks","Chicago Black Hawks","Toronto Maple Leafs","Chicago Blackhawks","Dallas Stars","Florida Panthers"],"awards":12}
{"firstName":"Tom","lastName":"Barrasso","PostGA":349,"teams":["Pittsburgh Penguins","St. Louis Blues","Ottawa Senators","Carolina Hurricanes","Buffalo Sabres","Toronto Maple Leafs"],"awards":7}
{"firstName":"Billy","lastName":"Smith","PostGA":348,"teams":["Los Angeles Kings","New York Islanders"],"awards":4}
{"firstName":"Curtis","lastName":"Joseph","PostGA":327,"teams":["St. Louis Blues","Toronto Maple Leafs","Detroit Red Wings","Edmonton Oilers","Calgary Flames","Phoenix Coyotes"],"awards":1}
{"firstName":"Glenn","lastName":"Hall","PostGA":321,"teams":["Chicago Blackhawks","Detroit Red Wings","St. Louis Blues","Chicago Black Hawks"],"awards":16}
